Personal Blog - Functions in R
…
# A tibble: 7 × 5
  term              estimate std.error statistic  p.value
  <chr>                <dbl>     <dbl>     <dbl>    <dbl>
1 (Intercept)          61.5       7.83     7.86  5.06e-14
2 genderfemale         10.8       4.94     2.19  2.88e- 2
3 income($25k,$55k]    -1.95      7.74    -0.251 8.02e- 1
4 income($55k,$95k]   -19.3       8.01    -2.42  1.63e- 2
5 income($95k,$Inf)   -18.6       7.47    -2.49  1.32e- 2
6 travel(0.25h,4h]    -26.6       6.00    -4.44  1.24e- 5
7 travel(4h,Infh)     -45.1       6.30    -7.16  5.06e-12

# A tibble: 346 × 11
   .rownames n_visits gender income  travel .fitted .resid   .hat .sigma .cooksd
   <chr>        <dbl> <fct>  <fct>   <fct>    <dbl>  <dbl>  <dbl>  <dbl>   <dbl>
 1 25               2 female ($95k,… (4h,I…    8.67  -6.67 0.0179   43.4 6.27e-5
 2 26               1 female ($95k,… (4h,I…    8.67  -7.67 0.0179   43.4 8.29e-5
 3 27               1 male   ($95k,… (0.25…   16.3  -15.3  0.0153   43.4 2.82e-4
 4 29               1 male   ($95k,… (4h,I…   -2.18   3.18 0.0122   43.4 9.60e-6
 5 30               1 female ($55k,… (4h,I…    7.95  -6.95 0.0229   43.4 8.81e-5
 6 31               1 male   [$0,$2… [0h,0…   61.5  -60.5  0.0326   43.3 9.73e-3
 7 33              80 female [$0,$2… [0h,0…   72.4    7.61 0.0291   43.4 1.36e-4
 8 34             104 female ($95k,… [0h,0…   53.8   50.2  0.0215   43.3 4.31e-3
 9 35              55 male   ($25k,… (0.25…   33.0   22.0  0.0165   43.4 6.29e-4
10 36             350 female ($25k,… [0h,0…   70.4  280.   0.0215   40.6 1.33e-1
# ℹ 336 more rows
# ℹ 1 more variable: .std.resid <dbl>
…
