Mburu - The reduction in weekly working hours in Europe
…
Data

The herein used data can be found in the statistics database of the ILO. For the purpose of this course, it has been slightly preprocessed.

load(url("http://s3.amazonaws.com/assets.datacamp.com/production/course_5807/datasets/ilo_data.RData"))

The loaded data contains 380 rows.

# Some summary statistics
ilo_data %>%
  group_by(year) %>%
  summarize(mean_hourly_compensation = mean(hourly_compensation),
            mean_working_hours = mean(working_hours))

# A tibble: 27 × 3
   year  mean_hourly_compensation mean_working_hours
   <fct>                    <dbl>              <dbl>
 1 1980                      9.27               34.0
 2 1981                      8.69               33.6
 3 1982                      8.36               33.5
 4 1983                      7.81               33.9
 5 1984                      7.54               33.7
 6 1985                      7.79               33.7
 7 1986                      9.70               34.0
 8 1987                     12.1                33.6
 9 1988                     13.2                33.7
10 1989                     13.1                33.5
# … with 17 more rows
…
