Mburu Blog - Census data in r with tidycensus
…
# Set year and dataset to get variables from the 2000 Census SF3
v00 <- load_variables(year = 2000,
                      dataset = "sf3",
                      cache = TRUE)

Exploring variables with tidyverse tools

Once loaded, your dataset of Census or ACS variables might contain thousands of rows. In RStudio, it is recommended to use the View() function to interactively search for these variables. Outside of RStudio, these datasets can be browsed using tidyverse filtering tools.

# Filter for table B19001
filter(v16, str_detect(name, "B19001"))

# A tibble: 170 × 4
   name        label                               concept               geogr…¹
   <chr>       <chr>                               <chr>                 <chr>  
 1 B19001A_001 Estimate!!Total                     HOUSEHOLD INCOME IN … tract  
 2 B19001A_002 Estimate!!Total!!Less than $10,000  HOUSEHOLD INCOME IN … tract  
 3 B19001A_003 Estimate!!Total!!$10,000 to $14,999 HOUSEHOLD INCOME IN … tract  
 4 B19001A_004 Estimate!!Total!!$15,000 to $19,999 HOUSEHOLD INCOME IN … tract  
 5 B19001A_005 Estimate!!Total!!$20,000 to $24,999 HOUSEHOLD INCOME IN … tract  
 6 B19001A_006 Estimate!!Total!!$25,000 to $29,999 HOUSEHOLD INCOME IN … tract  
 7 B19001A_007 Estimate!!Total!!$30,000 to $34,999 HOUSEHOLD INCOME IN … tract  
 8 B19001A_008 Estimate!!Total!!$35,000 to $39,999 HOUSEHOLD INCOME IN … tract  
 9 B19001A_009 Estimate!!Total!!$40,000 to $44,999 HOUSEHOLD INCOME IN … tract  
10 B19001A_010 Estimate!!Total!!$45,000 to $49,999 HOUSEHOLD INCOME IN … tract  
# … with 160 more rows, and abbreviated variable name ¹​geography
…
# Use a tidy workflow to wrangle ACS data
wa_grouped <- wa_income %>%
  filter(variable != "B19001_001") %>%
  mutate(incgroup = case_when(
    variable < "B19001_008" ~ "below35k", 
    variable < "B19001_013" ~ "35kto75k", 
    TRUE ~ "above75k"
  )) %>%
  group_by(NAME, incgroup) %>%
  summarize(group_est = sum(estimate))

wa_grouped

# A tibble: 117 × 3
# Groups:   NAME [39]
   NAME                      incgroup group_est
   <chr>                     <chr>        <dbl>
 1 Adams County, Washington  35kto75k      2156
 2 Adams County, Washington  above75k      2094
 3 Adams County, Washington  below35k      1908
 4 Asotin County, Washington 35kto75k      3215
 5 Asotin County, Washington above75k      3537
 6 Asotin County, Washington below35k      2535
 7 Benton County, Washington 35kto75k     21285
 8 Benton County, Washington above75k     37911
 9 Benton County, Washington below35k     15094
10 Chelan County, Washington 35kto75k      9163
# … with 107 more rows
…
In this exercise, you’ll learn how to use the tidyverse function map_df() to work with multi-year ACS data. map_df() helps analysts iterate through a sequence of values, compute a process for each of those values, then combine the results into a single data frame. You’ll be using map_df() in this way with ACS data, as you iterate through a vector of years, retrieve ACS data for each year, and combine the results. This will allow you to view how ACS estimates have changed over time.

# Map through ACS1 estimates to see how they change through the years
mi_cities <- map_df(2012:2016, function(x) {
  get_acs(geography = "place", 
          variables = c(totalpop = "B01003_001"), 
          state = "MI", 
          survey = "acs1", 
          year = x) %>%
    mutate(year = x)
})

mi_cities %>% arrange(NAME, year)

# A tibble: 80 × 6
   GEOID   NAME                     variable estimate   moe  year
   <chr>   <chr>                    <chr>       <dbl> <dbl> <int>
 1 2603000 Ann Arbor city, Michigan totalpop   116128    35  2012
 2 2603000 Ann Arbor city, Michigan totalpop   117034    43  2013
 3 2603000 Ann Arbor city, Michigan totalpop   117759    44  2014
 4 2603000 Ann Arbor city, Michigan totalpop   117070    33  2015
 5 2603000 Ann Arbor city, Michigan totalpop   120777    33  2016
 6 2621000 Dearborn city, Michigan  totalpop    96470    28  2012
 7 2621000 Dearborn city, Michigan  totalpop    95888    35  2013
 8 2621000 Dearborn city, Michigan  totalpop    95546    48  2014
 9 2621000 Dearborn city, Michigan  totalpop    95180    40  2015
10 2621000 Dearborn city, Michigan  totalpop    94430    52  2016
# … with 70 more rows
Inspecting margins of error

ACS data are distinct from decennial Census data in that they represent estimates with an associated margin of error. ACS margins of error by default represent a 90 percent confidence level around an estimate, which means that we are 90 percent sure that the true value falls within a range of the reported estimate plus or minus the reported margin of error.

In this exercise, you’ll get some experience working with data that has high margins of error relative to their estimates. We’ll use the example of poverty for the population aged 75 and above for Census tracts in Vermont.

# Get data on elderly poverty by Census tract in Vermont
vt_eldpov <- get_acs(geography = "tract", 
                     variables = c(eldpovm = "B17001_016", 
                                   eldpovf = "B17001_030"), 
                     state = "VT")

vt_eldpov

# A tibble: 386 × 5
   GEOID       NAME                                       variable estim…¹   moe
   <chr>       <chr>                                      <chr>      <dbl> <dbl>
 1 50001960100 Census Tract 9601, Addison County, Vermont eldpovm        2     5
 2 50001960100 Census Tract 9601, Addison County, Vermont eldpovf        8     7
 3 50001960200 Census Tract 9602, Addison County, Vermont eldpovm        4     6
 4 50001960200 Census Tract 9602, Addison County, Vermont eldpovf        0    10
 5 50001960300 Census Tract 9603, Addison County, Vermont eldpovm        0    10
 6 50001960300 Census Tract 9603, Addison County, Vermont eldpovf        7     9
 7 50001960400 Census Tract 9604, Addison County, Vermont eldpovm        7    10
 8 50001960400 Census Tract 9604, Addison County, Vermont eldpovf       15    11
 9 50001960500 Census Tract 9605, Addison County, Vermont eldpovm        6    10
10 50001960500 Census Tract 9605, Addison County, Vermont eldpovf       14    16
# … with 376 more rows, and abbreviated variable name ¹​estimate
…
