…
## Exploring variables with tidyverse tools

Once loaded, your dataset of Census or ACS variables might contain
thousands of rows. In RStudio, it is recommended to use the View()
function to interactively search for these variables. Outside of
RStudio, these datasets can be browsed using tidyverse filtering tools.

``` r
# Filter for table B19001
filter(v16, str_detect(name, "B19001"))
```

    ## # A tibble: 170 × 3
    ##    name     label                  concept                                      
    ##    <chr>    <chr>                  <chr>                                        
    ##  1 B19001_… Estimate!!Total        HOUSEHOLD INCOME IN THE PAST 12 MONTHS (IN 2…
    ##  2 B19001_… Estimate!!Total!!Less… HOUSEHOLD INCOME IN THE PAST 12 MONTHS (IN 2…
    ##  3 B19001_… Estimate!!Total!!$10,… HOUSEHOLD INCOME IN THE PAST 12 MONTHS (IN 2…
    ##  4 B19001_… Estimate!!Total!!$15,… HOUSEHOLD INCOME IN THE PAST 12 MONTHS (IN 2…
    ##  5 B19001_… Estimate!!Total!!$20,… HOUSEHOLD INCOME IN THE PAST 12 MONTHS (IN 2…
    ##  6 B19001_… Estimate!!Total!!$25,… HOUSEHOLD INCOME IN THE PAST 12 MONTHS (IN 2…
    ##  7 B19001_… Estimate!!Total!!$30,… HOUSEHOLD INCOME IN THE PAST 12 MONTHS (IN 2…
    ##  8 B19001_… Estimate!!Total!!$35,… HOUSEHOLD INCOME IN THE PAST 12 MONTHS (IN 2…
    ##  9 B19001_… Estimate!!Total!!$40,… HOUSEHOLD INCOME IN THE PAST 12 MONTHS (IN 2…
    ## 10 B19001_… Estimate!!Total!!$45,… HOUSEHOLD INCOME IN THE PAST 12 MONTHS (IN 2…
    ## # … with 160 more rows
…
wa_grouped
```

    ## # A tibble: 117 × 3
    ## # Groups:   NAME [39]
    ##    NAME                      incgroup group_est
    ##    <chr>                     <chr>        <dbl>
    ##  1 Adams County, Washington  35kto75k      2168
    ##  2 Adams County, Washington  above75k      1791
    ##  3 Adams County, Washington  below35k      2014
    ##  4 Asotin County, Washington 35kto75k      3133
    ##  5 Asotin County, Washington above75k      3157
    ##  6 Asotin County, Washington below35k      2811
    ##  7 Benton County, Washington 35kto75k     22245
    ##  8 Benton County, Washington above75k     32989
    ##  9 Benton County, Washington below35k     16887
    ## 10 Chelan County, Washington 35kto75k      9872
    ## # … with 107 more rows
…
``` r
# Map through ACS1 estimates to see how they change through the years
mi_cities <- map_df(2012:2016, function(x) {
  get_acs(geography = "place", 
          variables = c(totalpop = "B01003_001"), 
          state = "MI", 
          survey = "acs1", 
          year = x) %>%
    mutate(year = x)
})

mi_cities %>% arrange(NAME, year)
```

    ## # A tibble: 80 × 6
    ##    GEOID   NAME                     variable estimate   moe  year
    ##    <chr>   <chr>                    <chr>       <dbl> <dbl> <int>
    ##  1 2603000 Ann Arbor city, Michigan totalpop   116128    35  2012
    ##  2 2603000 Ann Arbor city, Michigan totalpop   117034    43  2013
    ##  3 2603000 Ann Arbor city, Michigan totalpop   117759    44  2014
    ##  4 2603000 Ann Arbor city, Michigan totalpop   117070    33  2015
    ##  5 2603000 Ann Arbor city, Michigan totalpop   120777    33  2016
    ##  6 2621000 Dearborn city, Michigan  totalpop    96470    28  2012
    ##  7 2621000 Dearborn city, Michigan  totalpop    95888    35  2013
    ##  8 2621000 Dearborn city, Michigan  totalpop    95546    48  2014
    ##  9 2621000 Dearborn city, Michigan  totalpop    95180    40  2015
    ## 10 2621000 Dearborn city, Michigan  totalpop    94430    52  2016
    ## # … with 70 more rows
…
``` r
# Get data on elderly poverty by Census tract in Vermont
vt_eldpov <- get_acs(geography = "tract", 
                     variables = c(eldpovm = "B17001_016", 
                                   eldpovf = "B17001_030"), 
                     state = "VT")

vt_eldpov
```

    ## # A tibble: 368 × 5
    ##    GEOID       NAME                                      variable estimate   moe
    ##    <chr>       <chr>                                     <chr>       <dbl> <dbl>
    ##  1 50001960100 Census Tract 9601, Addison County, Vermo… eldpovm         3     4
    ##  2 50001960100 Census Tract 9601, Addison County, Vermo… eldpovf        10     8
    ##  3 50001960200 Census Tract 9602, Addison County, Vermo… eldpovm         5     7
    ##  4 50001960200 Census Tract 9602, Addison County, Vermo… eldpovf         0     9
    ##  5 50001960300 Census Tract 9603, Addison County, Vermo… eldpovm        10    10
    ##  6 50001960300 Census Tract 9603, Addison County, Vermo… eldpovf        14    13
    ##  7 50001960400 Census Tract 9604, Addison County, Vermo… eldpovm         8     7
    ##  8 50001960400 Census Tract 9604, Addison County, Vermo… eldpovf        17     9
    ##  9 50001960500 Census Tract 9605, Addison County, Vermo… eldpovm         0     9
    ## 10 50001960500 Census Tract 9605, Addison County, Vermo… eldpovf         0     9
    ## # … with 358 more rows
…
